<?xml version="1.0" encoding="utf-8"?>
<!-- Generator: Adobe Illustrator 24.1.0, SVG Export Plug-In . SVG Version: 6.00 Build 0)  -->
<svg version="1.1" id="Vrstva_1" xmlns="http://www.w3.org/2000/svg" xmlns:xlink="http://www.w3.org/1999/xlink" x="0px" y="0px"
	 viewBox="0 0 92 84" enable-background="new 0 0 92 84" xml:space="preserve">
<g>
	<path d="M89.1,22.8L48.6,0.7c-1.7-0.9-3.7-0.9-5.3,0L2.9,22.8c-1.7,1-2.8,2.8-2.9,4.8c0,3.1,2.4,5.6,5.5,5.6h38.6
		v50.3h3.8V33.3h38.6v0c2,0,3.9-1.1,4.9-2.9C92.8,27.7,91.8,24.3,89.1,22.8z M88.2,28.2c-0.2,0.8-0.9,1.3-1.7,1.3h-81
		c-0.6,0-1.2-0.4-1.5-0.9c-0.5-0.9-0.2-2,0.7-2.5L45.1,4c0.3-0.1,0.6-0.2,0.9-0.2c0.3,0,0.6,0.1,0.8,0.2l40.5,22.1
		C88,26.5,88.4,27.4,88.2,28.2z"/>
	<polygon points="11.1,50.2 7.5,51.2 12.2,68.6 12.4,70.8 9.9,83.2 13.5,83.9 16.1,71.5 23.8,71.5 26.5,84
		30.2,83.2 27.6,71.5 30.7,71.5 30.7,67.8 15.9,67.8 	"/>
	<polygon points="84.5,51.2 80.9,50.2 76,67.8 61.2,67.8 61.2,71.5 64.3,71.5 61.8,83.2 65.5,84 68.2,71.5
		75.9,71.5 78.4,83.9 82.1,83.2 79.6,70.8 79.7,68.6 	"/>
</g>
</svg>
