<?xml version="1.0" encoding="utf-8"?>
<!-- Generator: Adobe Illustrator 24.1.0, SVG Export Plug-In . SVG Version: 6.00 Build 0)  -->
<svg version="1.1" id="Vrstva_1" xmlns="http://www.w3.org/2000/svg" xmlns:xlink="http://www.w3.org/1999/xlink" x="0px" y="0px"
	 viewBox="0 0 160 63.3" enable-background="new 0 0 160 63.3" xml:space="preserve">
<path d="M149,26.1c-5.5,0-10,4-10.8,9.3h-30.4V9.3c0-5.2-4.1-9.3-9.3-9.3h-80c-5.2,0-9.3,4.1-9.3,9.3v5.8C4,16,0,20.5,0,26v33.8h9.1
	v3.6h3.8v-3.6h5c0.4,0,0.7-0.1,1-0.2H138v0.2h9.1v3.6h3.8v-3.6h5.1c2.3,0,4-1.9,4-4.1V37.1C160,31.1,155.1,26.1,149,26.1z M18.4,3.8
	h80c3.1,0,5.6,2.5,5.6,5.6v26.1H22V26c0-5.5-4-9.9-9.1-10.8V9.3C12.9,6.2,15.4,3.8,18.4,3.8z M22,55.5V39.1h82.1v16.8H21.9
	C22,55.7,22,55.6,22,55.5z M18.4,55.5c0,0.3-0.2,0.5-0.5,0.5H3.8V25.9c0-0.3,0-0.6,0-0.8c0.2-4,3.7-7.2,7.7-6.9
	c4,0.2,7.2,3.7,6.9,7.7V55.5z M107.8,55.8V39.1H138v16.8H107.8z M156.3,55.5c0,0.2-0.2,0.5-0.4,0.5h-14.2V37.1c0-4,3.3-7.3,7.3-7.3
	c4,0,7.3,3.3,7.3,7.3L156.3,55.5L156.3,55.5z"/>
</svg>
